{
    "name": "SpentSharing",
    "fields": [
        {
            "fieldName": "amountShare",
            "fieldType": "Float",
            "fieldValidateRules": [
                "required"
            ]
        },
        {
            "fieldName": "share",
            "fieldType": "Integer",
            "fieldValidateRules": [
                "required",
                "min"
            ],
            "fieldValidateRulesMin": 0
        }
    ],
    "relationships": [
        {
            "relationshipType": "many-to-one",
            "otherEntityName": "profil",
            "otherEntityRelationshipName": "spentSharing",
            "relationshipName": "sharingProfil",
            "otherEntityField": "displayName"
        },
        {
            "relationshipType": "many-to-one",
            "otherEntityName": "spent",
            "otherEntityRelationshipName": "spentSharing",
            "relationshipName": "spent",
            "otherEntityField": "label"
        }
    ],
    "changelogDate": "20200110152854",
    "entityTableName": "spent_sharing",
    "dto": "mapstruct",
    "pagination": "infinite-scroll",
    "service": "serviceClass",
    "jpaMetamodelFiltering": true,
    "fluentMethods": true,
    "readOnly": false,
    "clientRootFolder": "",
    "applications": "*"
}