{
    "name": "TaskProject",
    "fields": [
        {
            "fieldName": "label",
            "fieldType": "String",
            "fieldValidateRules": [
                "required",
                "minlength",
                "maxlength"
            ],
            "fieldValidateRulesMinlength": 5,
            "fieldValidateRulesMaxlength": 40
        }
    ],
    "relationships": [
        {
            "relationshipType": "one-to-many",
            "otherEntityName": "task",
            "otherEntityRelationshipName": "taskProject",
            "relationshipName": "task"
        },
        {
            "relationshipType": "many-to-many",
            "otherEntityName": "profil",
            "otherEntityRelationshipName": "taskProject",
            "relationshipName": "owner",
            "otherEntityField": "displayName",
            "ownerSide": true
        },
        {
            "relationshipType": "many-to-one",
            "otherEntityName": "workspace",
            "otherEntityRelationshipName": "taskProject",
            "relationshipName": "workspace",
            "otherEntityField": "label"
        }
    ],
    "changelogDate": "20200110152857",
    "entityTableName": "task_project",
    "dto": "mapstruct",
    "pagination": "infinite-scroll",
    "service": "serviceClass",
    "jpaMetamodelFiltering": true,
    "fluentMethods": true,
    "readOnly": false,
    "clientRootFolder": "",
    "applications": "*"
}